<?xml version="1.0" encoding="utf-8" standalone="yes"?>
<rss version="2.0" xmlns:atom="http://www.w3.org/2005/Atom">
  <channel>
    <title>Personal Logs on emsenn</title>
    <link>https://emsenn.net/logs/</link>
    <description>Recent content in Personal Logs on emsenn</description>
    <generator>Hugo -- gohugo.io</generator>
    <language>en-us</language>
    <lastBuildDate>Mon, 21 Sep 2020 11:24:00 -0400</lastBuildDate><atom:link href="https://emsenn.net/logs/index.xml" rel="self" type="application/rss+xml" />
    <item>
      <title>[2020-09-21 Mon 11:24]</title>
      <link>https://emsenn.net/logs/2020-09-21-11-24/</link>
      <pubDate>Mon, 21 Sep 2020 11:24:00 -0400</pubDate>
      
      <guid>https://emsenn.net/logs/2020-09-21-11-24/</guid>
      <description>I&amp;rsquo;ve &amp;ldquo;successfully&amp;rdquo; ported over the old areas from the Teraum MUD into my MUD, where they&amp;rsquo;ll exist as part of the emsverse; a multiverse I&amp;rsquo;m implmenting with&amp;hellip; qtMUD, though I&amp;rsquo;m increasingly unattached to that name.
&amp;ldquo;Successfully&amp;rdquo; is in quotes here because while the emsverse declarations execute without raising any exceptions, there are a tremendous number of things that don&amp;rsquo;t actually work: areas exits are mis-set, thing&amp;rsquo;s have descriptions that are lists instead of strings, and so on.</description>
    </item>
    
    <item>
      <title>[2020-09-20 Sun 10:27]</title>
      <link>https://emsenn.net/logs/2020-09-20-10-27/</link>
      <pubDate>Sun, 20 Sep 2020 10:27:00 -0400</pubDate>
      
      <guid>https://emsenn.net/logs/2020-09-20-10-27/</guid>
      <description>I almost abandoned Teraum, my fantasy setting, but looking at it now as I bring the areas into my MUD to play with over the winter, I really&amp;hellip; think it&amp;rsquo;s a good enough fiction to continue to represent it. I mean, the subtext is so loud that it really does seem like it could be a useful setting for storytelling: and gameplay.</description>
    </item>
    
    <item>
      <title>[2020-09-20 Sun 08:10]</title>
      <link>https://emsenn.net/logs/2020-09-20-08-10/</link>
      <pubDate>Sun, 20 Sep 2020 08:10:00 -0400</pubDate>
      
      <guid>https://emsenn.net/logs/2020-09-20-08-10/</guid>
      <description>It was so cold over the night, but I think the garden made it.
Today I&amp;rsquo;m planning on staying inside with my partner while they work on schoolwork, since my back was sore yesterday and I just, didn&amp;rsquo;t accommodate that. There are a few chores I&amp;rsquo;d like to take care of inside, including washing bottles and my sprouting farm: now that I&amp;rsquo;ll be inside more as the weather turns cool, I&amp;rsquo;ll ramp up my production of gingerbeer and microgreens.</description>
    </item>
    
    <item>
      <title>[2020-09-19 Sat 14:37]</title>
      <link>https://emsenn.net/logs/2020-09-19-14-37/</link>
      <pubDate>Sat, 19 Sep 2020 14:37:00 -0400</pubDate>
      
      <guid>https://emsenn.net/logs/2020-09-19-14-37/</guid>
      <description>Dangit! I fell off writing my personal logs again. It&amp;rsquo;s a hard habit to build. Let&amp;rsquo;s see&amp;hellip; the last logs were on the ninth, ten days ago?
Since then the fires in the West have come and stayed, burning up more and more of the area. But that&amp;rsquo;s far away from me: here, we&amp;rsquo;ve been dealing with the tails of slow-moving storms coming in off the Atlantic, though my town hasn&amp;rsquo;t had any significant rainfall, yet.</description>
    </item>
    
    <item>
      <title>[2020-09-12 Sat 08:52]</title>
      <link>https://emsenn.net/logs/2020-09-12-08-52/</link>
      <pubDate>Sat, 12 Sep 2020 08:52:00 -0400</pubDate>
      
      <guid>https://emsenn.net/logs/2020-09-12-08-52/</guid>
      <description>The weather has pivoted toward being significantly cooler, and I woke to news that Toots Hibbert has died. It&amp;rsquo;s been interesting finding my mood on a cloudy morning filled with reggae.
I&amp;rsquo;ve been working on the overhauled qtMUD, trying to bring it back to feature parity with the old 0.3.1 release (the current version is 0.4.1)
I&amp;rsquo;ve got to add a bunch more basic MUDSocket commands, but I think I&amp;rsquo;m otherwise closer than I expect, and another day of hacking on it should bring me where I want to be.</description>
    </item>
    
    <item>
      <title>[2020-09-10 Thu 10:48]</title>
      <link>https://emsenn.net/logs/2020-09-10-10-48/</link>
      <pubDate>Thu, 10 Sep 2020 10:48:00 -0400</pubDate>
      
      <guid>https://emsenn.net/logs/2020-09-10-10-48/</guid>
      <description>So last night as I was going to bed, I was thinking about Christopher Webber&amp;rsquo;s Goblins, and where my MUD&amp;rsquo;s code is, and where it was when I switched to Racket, and&amp;hellip;
&amp;hellip;I have drifted rather far from where I started with my codebase, over the few months of hacking I&amp;rsquo;ve been doing.
I think a lot of that drift was caused by a vague desperation to have some sort of working MUD that I could escape into, but that doesn&amp;rsquo;t make it acceptable, even to myself.</description>
    </item>
    
    <item>
      <title>[2020-09-09 Wed 12:47]</title>
      <link>https://emsenn.net/logs/2020-09-09-12-47/</link>
      <pubDate>Wed, 09 Sep 2020 12:47:00 -0400</pubDate>
      
      <guid>https://emsenn.net/logs/2020-09-09-12-47/</guid>
      <description>I&amp;rsquo;m going to start working on overhauling how messages get from the universe and other things, to a client thing, and finally sent to their interface.
First, an explanation: A user accesses their MUD through an interface. Right now the only interface is the MUDSocket, available thorugh telnet. An interface associates a user with an individual thing, which from the perspective of the MUD is the user.
Right now, the user has a mudsocket-output-buffer quality, which is monitored by the MUDsocket tick event, and if it contains any sort of text, that text is sent via the MUDSocket to that user&amp;rsquo;s interface: their telnet client.</description>
    </item>
    
    <item>
      <title>[2020-09-09 Wed 11:40]</title>
      <link>https://emsenn.net/logs/2020-09-09-11-40/</link>
      <pubDate>Wed, 09 Sep 2020 11:40:00 -0400</pubDate>
      
      <guid>https://emsenn.net/logs/2020-09-09-11-40/</guid>
      <description>So I&amp;rsquo;m tinkering with my MUD - not qtMUD but emsMUD, my personal MUD, and gosh! There&amp;rsquo;s so many moving parts already, and so much code drift and naming convention drift and so on.
Right now my main goal is, I think, going through the main library components I have - particularly the MUDSocket component - and just, documenting and cleaning up.
It&amp;rsquo;s hard to decide what to work on, I guess, because as I go to look at one thing, I find something more primary to the code to work on.</description>
    </item>
    
    <item>
      <title>[2020-09-09 Wed 10:42]</title>
      <link>https://emsenn.net/logs/2020-09-09-10-42/</link>
      <pubDate>Wed, 09 Sep 2020 10:42:00 -0400</pubDate>
      
      <guid>https://emsenn.net/logs/2020-09-09-10-42/</guid>
      <description>I&amp;rsquo;ve pruned back the biggest stevia I have some and am going to clip those leaves down and dry them.</description>
    </item>
    
    <item>
      <title>[2020-09-09 Wed 10:38]</title>
      <link>https://emsenn.net/logs/2020-09-09-10-38/</link>
      <pubDate>Wed, 09 Sep 2020 10:38:00 -0400</pubDate>
      
      <guid>https://emsenn.net/logs/2020-09-09-10-38/</guid>
      <description>I actually got more done in the garden than I&amp;rsquo;d expected, including taking some cuttings to try and propagate more rosemary. I was talking it over with Esther briefly and I think I&amp;rsquo;ve mothered more than 30 rosemary plants this summer! Almost all of them have gone out to local BIPOC-owned farms and gardens, except six that I&amp;rsquo;m still getting established.
My energy and morale are still fairly high this morning so I&amp;rsquo;m going to continue to try and do chores inside - I was planning on doing dishes but Esther just said they are going to do dishes, so I&amp;rsquo;m probably going to work on other chores instead.</description>
    </item>
    
    <item>
      <title>[2020-09-09 Wed 09:32]</title>
      <link>https://emsenn.net/logs/2020-09-09-09-32/</link>
      <pubDate>Wed, 09 Sep 2020 09:32:00 -0400</pubDate>
      
      <guid>https://emsenn.net/logs/2020-09-09-09-32/</guid>
      <description>It&amp;rsquo;s cool out, cloudy, with a steady breeze: it&amp;rsquo;s going to rain later. That leaves me wanting to spend my morning in the garden. I&amp;rsquo;ll probably sort more compost and maybe move some of the random things I have like tiny mulberry trees into bigger pots.
It&amp;rsquo;d also be a good day to scatter out seed for collards, beets, turnips, lettuce, and all the others.
Buuut my knees also hurt from the weather, so I might end up not doing very much at all.</description>
    </item>
    
    <item>
      <title>[2020-09-09 Wed 09:04]</title>
      <link>https://emsenn.net/logs/2020-09-09-09-04/</link>
      <pubDate>Wed, 09 Sep 2020 09:04:00 -0400</pubDate>
      
      <guid>https://emsenn.net/logs/2020-09-09-09-04/</guid>
      <description>Yesterday I did some work in the garden and with qtMUD: my focus in the garden was processing compost, and in qtMUD, I was drafting up documentation, taking steps to get the code into a state that I can release.
As Christopher Webber makes progress with his Spritely project, I continue to get questions if qtMUD is related to it or relies on it: after all, Spritely is for &amp;ldquo;distributed programming&amp;rdquo; and uses &amp;ldquo;distributed virtual worlds&amp;rdquo; as one of the examples of what that could be, and qtMUD is code for running a virtual reality.</description>
    </item>
    
    <item>
      <title>[2020-09-08 Tue 15:26]</title>
      <link>https://emsenn.net/logs/2020-09-08-15-26/</link>
      <pubDate>Tue, 08 Sep 2020 15:26:00 -0400</pubDate>
      
      <guid>https://emsenn.net/logs/2020-09-08-15-26/</guid>
      <description>I don&amp;rsquo;t think I&amp;rsquo;ve mentioned it explicitly but David Graeber died several days ago, and it has caused many people around me to start reading his work. Of Flying Cars was one of the more popular pieces this past week, which is why I&amp;rsquo;d re-read it.
It&amp;rsquo;s criticism of modern technology as one of simulation has been hard to ruminate on, as I also am working on a bit of code that I am literally calling &amp;ldquo;SiMUD,&amp;rdquo; sort for &amp;ldquo;simulated multi-user dimension.</description>
    </item>
    
    <item>
      <title>[2020-09-08 Tue 15:21]</title>
      <link>https://emsenn.net/logs/2020-09-08-15-21/</link>
      <pubDate>Tue, 08 Sep 2020 15:21:00 -0400</pubDate>
      
      <guid>https://emsenn.net/logs/2020-09-08-15-21/</guid>
      <description>I&amp;rsquo;ve reached a new point with qtMUD development where I have the competency to write documentation and test cases for the code I wish to create, and therefore have little excuse but to do so.
I also want to write up roughly what the process is, so I can write out a story of &amp;ldquo;moving qtMUD code from one thing to the qtMUD library.&amp;rdquo;</description>
    </item>
    
    <item>
      <title>[2020-09-08 Tue 11:34]</title>
      <link>https://emsenn.net/logs/2020-09-08-11-34/</link>
      <pubDate>Tue, 08 Sep 2020 11:34:00 -0400</pubDate>
      
      <guid>https://emsenn.net/logs/2020-09-08-11-34/</guid>
      <description>I&amp;rsquo;ve been moving dirt from my compost pile into milk crates lined with landscaping fabric, and I hate how finicky it is to keep the fabric upright while I&amp;rsquo;m filling the crate. I could use clamps to keep it fastened but those take so long to get fastened and each milk crate has slightly different corrugation so I have to adjust how I place it each time too.
So I&amp;rsquo;m taking a break because it is just so frustrating to like, be trying to hold up 6 points of fabric and moving dirt.</description>
    </item>
    
    <item>
      <title>[2020-09-08 Tue 08:41]</title>
      <link>https://emsenn.net/logs/2020-09-08-08-41/</link>
      <pubDate>Tue, 08 Sep 2020 08:41:00 -0400</pubDate>
      
      <guid>https://emsenn.net/logs/2020-09-08-08-41/</guid>
      <description>I&amp;rsquo;m guessing - actually I know a lot of my friends have recently read David Graeber&amp;rsquo;s Of Flying Cars and the Declining Rate of Profit, which discusses how the contemporary kyriarchy maintains a campaign of suppressing imagination.
If you haven&amp;rsquo;t read it, I encourage you to, but I will try and sum up the relevant bits:
  We used to have a vast cultural imagination. Moon cities. Interstellar travel. Immortality.</description>
    </item>
    
    <item>
      <title>[2020-09-08 Tue 08:35]</title>
      <link>https://emsenn.net/logs/2020-09-08-08-35/</link>
      <pubDate>Tue, 08 Sep 2020 08:35:00 -0400</pubDate>
      
      <guid>https://emsenn.net/logs/2020-09-08-08-35/</guid>
      <description>How much can the history of the West in the 20th and 21st century be reduced to &amp;ldquo;white people trying to decide if they want to live in cities or not?&amp;rdquo; before you start to lose important details?
Cause it feels like, a lot.</description>
    </item>
    
    <item>
      <title>[2020-09-08 Tue 08:11]</title>
      <link>https://emsenn.net/logs/2020-09-08-08-11/</link>
      <pubDate>Tue, 08 Sep 2020 08:11:00 -0400</pubDate>
      
      <guid>https://emsenn.net/logs/2020-09-08-08-11/</guid>
      <description>The Earth is my grandmother; this is not a metaphor.</description>
    </item>
    
    <item>
      <title>[2020-09-07 Mon 15:35]</title>
      <link>https://emsenn.net/logs/2020-09-07-15-35/</link>
      <pubDate>Mon, 07 Sep 2020 15:35:00 -0400</pubDate>
      
      <guid>https://emsenn.net/logs/2020-09-07-15-35/</guid>
      <description>All that tinkering with my website earlier in the day has proven good for my morale, and I&amp;rsquo;m ready to turn my eye toward cleaning up the qtMUD codebase for the rest of the day with relative excitement.</description>
    </item>
    
    <item>
      <title>[2020-09-07 Mon 14:52]</title>
      <link>https://emsenn.net/logs/2020-09-07-14-52/</link>
      <pubDate>Mon, 07 Sep 2020 14:52:00 -0400</pubDate>
      
      <guid>https://emsenn.net/logs/2020-09-07-14-52/</guid>
      <description>Yesterday and today around this time I started to get a little headache and sneeze a few times, and while part of my brain wants to panic about the possibility that it&amp;rsquo;s symptoms of COVID, I think it&amp;rsquo;s more likely to be an allergic response to something in the garden that&amp;rsquo;s throwing off pollen this time of day, especially with the consistent breeze. Maybe it&amp;rsquo;s the pearl millet? That&amp;rsquo;s fairly pollen-right right now, but of course so are so many toher things I wouldn&amp;rsquo;t necessarily notice.</description>
    </item>
    
    <item>
      <title>[2020-09-07 Mon 14:34]</title>
      <link>https://emsenn.net/logs/2020-09-07-14-34/</link>
      <pubDate>Mon, 07 Sep 2020 14:34:00 -0400</pubDate>
      
      <guid>https://emsenn.net/logs/2020-09-07-14-34/</guid>
      <description>Jess Mahler just released her writing, &amp;ldquo;What is Judaism: It is a Tribe&amp;rdquo; which I was fortunate enough to get to read in advance. I really liked reading it, and now that it&amp;rsquo;s out, I&amp;rsquo;ll release a paraphrase of a note I shared with her at the time:
 I tend to be looser in my use of &amp;ldquo;indigenous&amp;rdquo; than many people, because I have come to believe that everyone is &amp;ldquo;indigenous&amp;rdquo; to something, it&amp;rsquo;s just that few people are &amp;ldquo;indigenous to a place&amp;rdquo; the way Indigenous peoples are.</description>
    </item>
    
    <item>
      <title>[2020-09-07 Mon 12:45]</title>
      <link>https://emsenn.net/logs/2020-09-07-12-45/</link>
      <pubDate>Mon, 07 Sep 2020 12:45:00 -0400</pubDate>
      
      <guid>https://emsenn.net/logs/2020-09-07-12-45/</guid>
      <description>I spent some of the later part of the evening working on a new &amp;ldquo;story,&amp;rdquo; titled Implementing a Task-handling Universe and Things with qtMUD 0.3.1 - which is what I mentioned in an earlier log. I&amp;rsquo;m also taking the opportunity to explain some of the core concepts to qtMUD, including the new method of using a thing or its&#39; universes procedures.</description>
    </item>
    
    <item>
      <title>[2020-09-07 Mon 11:31]</title>
      <link>https://emsenn.net/logs/2020-09-07-11-31/</link>
      <pubDate>Mon, 07 Sep 2020 11:31:00 -0400</pubDate>
      
      <guid>https://emsenn.net/logs/2020-09-07-11-31/</guid>
      <description>While doing a walk around the garden this morning I had the motivation to process some compost, so I did, and stopped once I started to notice myself sweating - longer than usual, now that fall is coming in and there&amp;rsquo;s a constant breeze. Now, my arms feel like wet bags of sand!</description>
    </item>
    
    <item>
      <title>Implementing a Simple Task with qtMUD 0.3.1</title>
      <link>https://emsenn.net/logs/implementing-a-task-handling-universe-and-things-with-qtmud/</link>
      <pubDate>Mon, 07 Sep 2020 10:00:00 -0400</pubDate>
      
      <guid>https://emsenn.net/logs/implementing-a-task-handling-universe-and-things-with-qtmud/</guid>
      <description>Introduction In this piece I&amp;rsquo;d like to explore implementing a simple task-handler using qtMUD 0.3.1. In doing so, I hope to explain (for the first time, so bear with me) some of the concepts I&amp;rsquo;ve implemented in my MUD engine, and how they&amp;rsquo;re used.
To explain the concepts I&amp;rsquo;m going to be using literate programming, or at least my lazy and quick interpretation of it.
Creating the Universe So, to get started, we declare which programming language we&amp;rsquo;re going to be using (Racket), we require the qtMUD module, and we start a logger, which provides messages to the REPL that we get once we run the MUD.</description>
    </item>
    
    <item>
      <title>[2020-09-07 Mon 09:52]</title>
      <link>https://emsenn.net/logs/2020-09-07-09-52/</link>
      <pubDate>Mon, 07 Sep 2020 09:52:00 -0400</pubDate>
      
      <guid>https://emsenn.net/logs/2020-09-07-09-52/</guid>
      <description>Alright! I&amp;rsquo;ve made good progress consolidating down my Org-mode files and other projects, and very quickly centered my website&amp;rsquo;s homepage around the blogging elements of the site, for now - though there is a page listing the other projects I&amp;rsquo;m working on.
One thing that I don&amp;rsquo;t feel like I&amp;rsquo;m getting any closer to is actually tracking what it is I need to be working on. I wonder if a new Capture template that just takes a simple &amp;ldquo;what do you need to do&amp;rdquo; and puts it in an unsorted triage of tasks would work - then I could make it a job of sorting through the tasks, like I go through my website entries and tag them long after i&amp;rsquo;ve written them.</description>
    </item>
    
    <item>
      <title>[2020-09-07 Mon 09:16]</title>
      <link>https://emsenn.net/logs/2020-09-07-09-16/</link>
      <pubDate>Mon, 07 Sep 2020 09:16:00 -0400</pubDate>
      
      <guid>https://emsenn.net/logs/2020-09-07-09-16/</guid>
      <description>This morning I&amp;rsquo;m going to try, with my time on a computer, clean up the process I use to push to my website, and clean up my website to be more focused on personal matters.</description>
    </item>
    
    <item>
      <title>[2020-09-06 Sun 23:37]</title>
      <link>https://emsenn.net/logs/2020-09-06-23-37/</link>
      <pubDate>Sun, 06 Sep 2020 23:37:00 -0400</pubDate>
      
      <guid>https://emsenn.net/logs/2020-09-06-23-37/</guid>
      <description>This is a test log entry, to see if the log capture template has been repaired.</description>
    </item>
    
    <item>
      <title>[2020-08-27 Thu 09:18]</title>
      <link>https://emsenn.net/logs/2020-08-27-09-18/</link>
      <pubDate>Thu, 27 Aug 2020 09:18:00 -0400</pubDate>
      
      <guid>https://emsenn.net/logs/2020-08-27-09-18/</guid>
      <description>I&amp;rsquo;ve been intending to center food in my way of living this year, and I&amp;rsquo;ve done a bad job at it. Which is an interesting way to feel because so much of my day is spent working with food: I wake up and set up signs for free food around the block, then move bushels and crates of food onto tables, then walk around looking at, watering, and weeding plants.</description>
    </item>
    
    <item>
      <title>[2020-08-26 Wed 12:22]</title>
      <link>https://emsenn.net/logs/2020-08-26-12-23/</link>
      <pubDate>Wed, 26 Aug 2020 12:23:00 -0400</pubDate>
      
      <guid>https://emsenn.net/logs/2020-08-26-12-23/</guid>
      <description>I purged my old Emacs config, which was mostly full of stuff I wasn&amp;rsquo;t using, and modeled my new configuration after how Alex Schroeder has his set up. Right now the only things I have set up are a few little silly features that I like: olivetti-mode, which limits the window to a centered column within the frame, and centered-cursor-mode, which keeps the cursor in the center of the line, moving the window around it.</description>
    </item>
    
    <item>
      <title>[2020-08-26 Wed 10:34]</title>
      <link>https://emsenn.net/logs/2020-08-26-10-34/</link>
      <pubDate>Wed, 26 Aug 2020 10:34:00 -0400</pubDate>
      
      <guid>https://emsenn.net/logs/2020-08-26-10-34/</guid>
      <description>I&amp;rsquo;ve been making good progress cleaning up the qtMUD code, though it doesn&amp;rsquo;t feel like much has changed, and I doubt things would actually work if I tried to run the code. But I&amp;rsquo;m adding in like, checks for making sure arguments are the right type and cleaning up the log messages and stuff. Basically bringing it from a janky prototype to a workable codebase. (Maybe. I&amp;rsquo;m so new to Racket, and so unfamiliar with working on larger projects, that I could be doing everything wrong.</description>
    </item>
    
    <item>
      <title>[2020-08-25 Tue 10:39]</title>
      <link>https://emsenn.net/logs/2020-08-25-10-39/</link>
      <pubDate>Tue, 25 Aug 2020 10:39:00 -0400</pubDate>
      
      <guid>https://emsenn.net/logs/2020-08-25-10-39/</guid>
      <description>Look at me, being bad about updating my logs again. In the last six days, since I last made a substantial log entry, I&amp;rsquo;ve made good progress with my MUD engine. I renamed it from &amp;ldquo;Racket-MUD&amp;rdquo; to &amp;ldquo;qtMUD,&amp;rdquo; and removed a lot of the functional-ness of working with &amp;ldquo;things&amp;rdquo; and &amp;ldquo;universes,&amp;rdquo; data records for handling in-MUD stuff.
I currently have something that works, more or less - some of the core procedures are written in ways that are quick and if I&amp;rsquo;m to really move ahead, they&amp;rsquo;ll need to be fleshed out, but that&amp;rsquo;s mostly mundane code-writing.</description>
    </item>
    
    <item>
      <title>[2020-08-20 Thu 10:07]</title>
      <link>https://emsenn.net/logs/2020-08-20-10-7/</link>
      <pubDate>Thu, 20 Aug 2020 10:07:00 -0400</pubDate>
      
      <guid>https://emsenn.net/logs/2020-08-20-10-7/</guid>
      <description>Ahhh heck. I think I need to change how Things work.
So right now, for every quality, there&amp;rsquo;s procedures like set-thing-area-exits!.
This is really verbose, leads to lots of copy-pasting of code that might be nearly identical between qualities, except quality-name.
So, maybe what I should do is have the basic set of thing-quality APIs check universes and things for these procedures, as keys inside hashtables, the way certain things like the MUDSocket check the universe-procedures for a custom login message, for example.</description>
    </item>
    
    <item>
      <title>[2020-08-19 Wed 08:23]</title>
      <link>https://emsenn.net/logs/2020-08-19-08-23/</link>
      <pubDate>Wed, 19 Aug 2020 08:23:00 -0400</pubDate>
      
      <guid>https://emsenn.net/logs/2020-08-19-08-23/</guid>
      <description>I haven&amp;rsquo;t put proper love and attention into building up my computer as a tool for myself. I was thinking about it this way: as I go through the day using my physical body, I am often taking small breaks to stretch or otherwise keep it in good shape. I don&amp;rsquo;t do the same with my computer: I sit down to it and do what I need to do. Occasionally, when the tools I use to do my tasks get too fragile, I make time to fix things up, but it&amp;rsquo;s always on the verge of too little, too late.</description>
    </item>
    
    <item>
      <title>[2020-08-18 Tue 18:34]</title>
      <link>https://emsenn.net/logs/2020-08-18-18-34/</link>
      <pubDate>Tue, 18 Aug 2020 18:34:00 -0400</pubDate>
      
      <guid>https://emsenn.net/logs/2020-08-18-18-34/</guid>
      <description>Oh gosh I&amp;rsquo;ve been bad about taking logs recently when I tinker on the MUD. In part because of how I&amp;rsquo;ve been tinkering: largely bouncing across the whole project. I&amp;rsquo;ve also been reorganizing a lot of how the project is laid out, so I have to keep focused until I&amp;rsquo;m done.
I also haven&amp;rsquo;t done any real consideration of how to track plans - or done anything to set up a git repository!</description>
    </item>
    
    <item>
      <title>[2020-08-16 Sun 10:21]</title>
      <link>https://emsenn.net/logs/2020-08-16-10-21/</link>
      <pubDate>Sun, 16 Aug 2020 10:21:00 -0400</pubDate>
      
      <guid>https://emsenn.net/logs/2020-08-16-10-21/</guid>
      <description>So, I&amp;rsquo;ve changed the name of the MUD engine, from Racket-MUD to qtMUD.
qtMUD is the name I used for my Python MUD engine, and I really liked it but didn&amp;rsquo;t want to reuse it for an engine in an entirely different language, especially when I wasn&amp;rsquo;t sure if it&amp;rsquo;d work the same way. But, it does (more or less) and it&amp;rsquo;s been a few years without anyone else touching the Python-language qtMUD, so I&amp;rsquo;m moving back to the name.</description>
    </item>
    
    <item>
      <title>[2020-08-14 Fri 11:23]</title>
      <link>https://emsenn.net/logs/2020-08-14-11-23/</link>
      <pubDate>Fri, 14 Aug 2020 11:23:00 -0400</pubDate>
      
      <guid>https://emsenn.net/logs/2020-08-14-11-23/</guid>
      <description>Whoops! I accidentally fell off writing logs, ater a few days of doing so well at it.
Yesterday my partner had two classes, which meant something like 6 hours of sitting quietly off-screen for me. Among other things, I worked on Racket-MUD&amp;hellip; I again started over.
I&amp;rsquo;m not sure but I think since I started making a MUD - 18 years ago now, when I was 12 - I&amp;rsquo;ve started over the project probably eight or so times in different programming languages, and honestly probably thirty or more times, total.</description>
    </item>
    
    <item>
      <title>[2020-08-11 Tue 10:07]</title>
      <link>https://emsenn.net/logs/2020-08-11-10-07/</link>
      <pubDate>Tue, 11 Aug 2020 10:07:00 -0400</pubDate>
      
      <guid>https://emsenn.net/logs/2020-08-11-10-07/</guid>
      <description>This might be the most days-in-a-row that I&amp;rsquo;ve updated my personal logs, in a long time! Even with the hiccups, it seems like I&amp;rsquo;m getting closer to a process that works for me.
Today&amp;rsquo;s agenda is rather loose and informal, excepting the routine mutualist activities that are scheduled throughout the day. My biggest plan for the day is to crack through the rewrite of my MUD engine&amp;rsquo;s basic library, that allows for connection through a socket server, logging in, and basic command parsing.</description>
    </item>
    
    <item>
      <title>[2020-08-09 Sun 09:37]</title>
      <link>https://emsenn.net/logs/2020-08-09-09-37/</link>
      <pubDate>Sun, 09 Aug 2020 09:37:00 -0400</pubDate>
      
      <guid>https://emsenn.net/logs/2020-08-09-09-37/</guid>
      <description>I accidentally slept later into the morning today than I had planned, but I slept better than I had been so I&amp;rsquo;m not mad about it, and the weather today seems like it will stay fairly cool.
My plans for the day are to 1) relax while my shoes1 bounce around in the dryer - write this log - and then I&amp;rsquo;m going to go out in the garden and pull up a finished little garden-plot of corn.</description>
    </item>
    
    <item>
      <title>[2020-08-08 Sat 22:17]</title>
      <link>https://emsenn.net/logs/2020-08-08-22-17/</link>
      <pubDate>Sat, 08 Aug 2020 22:17:00 -0400</pubDate>
      
      <guid>https://emsenn.net/logs/2020-08-08-22-17/</guid>
      <description>I did an impressive amount today getting my website really tightened up and I am more than happy enough to put it down to do some big gardening tomorrow - I&amp;rsquo;ve deicded I&amp;rsquo;m going to try and plant out as many of the beans and squash as I have that I can behind the local bar, since it&amp;rsquo;s clear the regulars who come to the Free Market aren&amp;rsquo;t able to plant more plants where they are, themselves.</description>
    </item>
    
    <item>
      <title>[2020-08-08 Sat 12:07]</title>
      <link>https://emsenn.net/logs/2020-08-08-12-07/</link>
      <pubDate>Sat, 08 Aug 2020 12:07:00 -0400</pubDate>
      
      <guid>https://emsenn.net/logs/2020-08-08-12-07/</guid>
      <description>People here pre-grocery-shop by coming by the free market and looking for what we have, asking what we might be getting in stock soon, and then after they&amp;rsquo;ve gotten what makes sense from us, they&amp;rsquo;ll tweak their grocery shopping list and THEN go to the grocery - or, sometimes, not need to go shopping at all!
And I love so much of that
Like, okay, the fact that we&amp;rsquo;re helping people offset their groceries is really amazing but</description>
    </item>
    
    <item>
      <title>[2020-08-08 Sat 10:20]</title>
      <link>https://emsenn.net/logs/2020-08-08-10-20/</link>
      <pubDate>Sat, 08 Aug 2020 10:20:00 -0400</pubDate>
      
      <guid>https://emsenn.net/logs/2020-08-08-10-20/</guid>
      <description>The Town of Chapel Hill (where I live) is asking for donations from the community to their Emergency Housing Assistance Program, which provides emergency rent assistance for folk living in certain housing projects around the town.
Absolutely ridiculous request, considering the town allocated out something like $13,000,0001 to developers to build mixed office/condo projects that are rapidly increasing rent and property taxes, pushing folk out of private housing and into the projects.</description>
    </item>
    
    <item>
      <title>[2020-08-07 Fri 16:04]</title>
      <link>https://emsenn.net/logs/2020-08-07-16-04/</link>
      <pubDate>Fri, 07 Aug 2020 16:04:00 -0400</pubDate>
      
      <guid>https://emsenn.net/logs/2020-08-07-16-04/</guid>
      <description>I&amp;rsquo;ve realized that I&amp;rsquo;m re-doing a lot of logic Hugo comes with, via its &amp;ldquo;Lookup Orders,&amp;rdquo; and so I need to reorganize my layouts before I go any further.</description>
    </item>
    
    <item>
      <title>[2020-08-07 Fri 14:43]</title>
      <link>https://emsenn.net/logs/2020-08-07-14-43/</link>
      <pubDate>Fri, 07 Aug 2020 14:43:00 -0400</pubDate>
      
      <guid>https://emsenn.net/logs/2020-08-07-14-43/</guid>
      <description>So I was thinking about it and I think I&amp;rsquo;ve already put too much stuff on my plate, with my website and other projects. I think I&amp;rsquo;m going to see if I can&amp;rsquo;t look at a sitemap (if Hugo can generate one?) and then go page by page and record what it is I want to do.
A precursor to this I might work on is adding, the same way I have Logs and Bulletins as standardized topics across Org-mode files, adding a Projects subtree for tracking what on-going projects I have related to a topic.</description>
    </item>
    
    <item>
      <title>[2020-08-07 Fri 11:27]</title>
      <link>https://emsenn.net/logs/2020-08-07-11-27/</link>
      <pubDate>Fri, 07 Aug 2020 11:27:00 -0400</pubDate>
      
      <guid>https://emsenn.net/logs/2020-08-07-11-27/</guid>
      <description>I feel like I actually made some progress with my website over the past few days - like, the pages seem actually intelligible and easy to follow! And that&amp;rsquo;s honestly a good encouragement to write these sorts of log entries: if not for a wider audience, it might be nice to look back on what I had to say about past days.
I mean, most folk who take such journals do say they&amp;rsquo;re nice, but I haven&amp;rsquo;t and don&amp;rsquo;t want to assume!</description>
    </item>
    
    <item>
      <title>[2020-08-06 Thu 15:32]</title>
      <link>https://emsenn.net/logs/2020-08-06-15-32/</link>
      <pubDate>Thu, 06 Aug 2020 15:32:00 -0400</pubDate>
      
      <guid>https://emsenn.net/logs/2020-08-06-15-32/</guid>
      <description>So I&amp;rsquo;ve made good progress on things so far today, it&amp;rsquo;s still just a matter of cleaning up the existing layouts, and I think writing some documentation, though I&amp;rsquo;m not sure best how to organize that.</description>
    </item>
    
    <item>
      <title>[2020-08-06 Thu 11:12]</title>
      <link>https://emsenn.net/logs/2020-08-06-11-12/</link>
      <pubDate>Thu, 06 Aug 2020 11:12:00 -0400</pubDate>
      
      <guid>https://emsenn.net/logs/2020-08-06-11-12/</guid>
      <description>Today I&amp;rsquo;m going to continue working on the layouts used for emsenn.net. The goal is to, by the end of the day, have the https://emsenn.net/programming/emsenn-net/ page mostly complete: listing its bulletins, logs, and source files.
I&amp;rsquo;m not entirely sure how I&amp;rsquo;m going to organize the source files. I think each file of the source should end up its own page, so that there are pages for, say /programming/emsenn-net/config/ or /programming/emsenn-net/layouts/_default/baseof/</description>
    </item>
    
    <item>
      <title>[2020-08-05 Wed 22:34]</title>
      <link>https://emsenn.net/logs/2020-08-05-22-34/</link>
      <pubDate>Wed, 05 Aug 2020 22:34:00 -0400</pubDate>
      
      <guid>https://emsenn.net/logs/2020-08-05-22-34/</guid>
      <description>I made good progress today overhauling the website&amp;rsquo;s layouts, following the new organization laid out in recent logs.</description>
    </item>
    
    <item>
      <title>[2020-08-05 Wed 11:42]</title>
      <link>https://emsenn.net/logs/2020-08-05-11-42/</link>
      <pubDate>Wed, 05 Aug 2020 11:42:00 -0400</pubDate>
      
      <guid>https://emsenn.net/logs/2020-08-05-11-42/</guid>
      <description>I&amp;rsquo;ve recently started working to standardize how my written records are, er, recorded, so that it&amp;rsquo;ll be easier for me to handle rendering them with Hugo. But this means that I need to rework my Hugo templates, to accomodate the concepts.</description>
    </item>
    
    <item>
      <title>[2020-08-05 Wed 08:55]</title>
      <link>https://emsenn.net/logs/2020-08-05-05-55/</link>
      <pubDate>Wed, 05 Aug 2020 08:55:00 -0400</pubDate>
      
      <guid>https://emsenn.net/logs/2020-08-05-05-55/</guid>
      <description>In the previous log I sketched out the (rather few) qualities that pieces of writing would have, as well as qualities for two types of writing: logs (like this piece) and notes - short little bits of writing that might get syndicated into a microblog.
The qualities I listed were:
 author version history, meaning for now:  a creation date a publication date and a date of last modification   keyword tags  One thing I can&amp;rsquo;t quite decide on is whether to have explicitly defined types of writing, or whether the Hugo renderer should do the work to infer the type.</description>
    </item>
    
    <item>
      <title>[2020-08-04 Tue 11:36]</title>
      <link>https://emsenn.net/logs/2020-08-04-11-36/</link>
      <pubDate>Tue, 04 Aug 2020 11:36:00 -0400</pubDate>
      
      <guid>https://emsenn.net/logs/2020-08-04-11-36/</guid>
      <description>In my previous log entry I wrote about how I basically use computers to handle pieces of information, but I have two different systems for doing it. One way to unify these systems is by standardizing the output of the information I&amp;rsquo;m writing in one system so that it can (once an interpreter is written) be interpreted as data by the other.
The system I&amp;rsquo;m using now is Org-mode, Ox-Hugo, and Hugo, and the system I&amp;rsquo;d like to use is my MUD engine, written in Racket.</description>
    </item>
    
    <item>
      <title>[2020-08-03 Mon 22:41]</title>
      <link>https://emsenn.net/logs/2020-08-03-22-41/</link>
      <pubDate>Mon, 03 Aug 2020 22:41:00 -0400</pubDate>
      
      <guid>https://emsenn.net/logs/2020-08-03-22-41/</guid>
      <description>I&amp;rsquo;ve recently been getting back into using my computer more, which mostly means dealing with pieces of information. I was thinking about it and, boiled down, there&amp;rsquo;s two ways I do this:
 For dealing with information to do with stuff that exists inside a MUD world, I use Racket, a programming language. Or, I would, if the MUD engine I was making to do this weren&amp;rsquo;t half-broken and in the earliest phases of development.</description>
    </item>
    
    <item>
      <title>[2020-08-03 Mon 07:34]</title>
      <link>https://emsenn.net/logs/2020-08-05-11-38/</link>
      <pubDate>Mon, 03 Aug 2020 07:34:00 -0400</pubDate>
      
      <guid>https://emsenn.net/logs/2020-08-05-11-38/</guid>
      <description>It feels like I was never asleep last night, though I was in bed trying to rest. It hasn&amp;rsquo;t set a good energy for moving into today, when I have more preparations to make for Hurricane Isias, but I got a lot done yesterday.</description>
    </item>
    
    <item>
      <title>[2020-08-02 Sun 09:41]</title>
      <link>https://emsenn.net/logs/2020-08-02-09-41/</link>
      <pubDate>Sun, 02 Aug 2020 09:41:00 -0400</pubDate>
      
      <guid>https://emsenn.net/logs/2020-08-02-09-41/</guid>
      <description>I&amp;rsquo;ve been bad about updating my personal records recently. To those who benefit from those records, I apologize. My mental and spiritual life has been strained recently, and I&amp;rsquo;ve mostly been pursuing a sense of escape: first my working on my MUD engine and then more recently by playing computer games.
I think what happened is that after being ostracized from one of the online communities I most involved myself with1, I was no longer connected to one of my main streams of information about contemporary anarchy, mutualism, and especially their efforts in urban gardening.</description>
    </item>
    
    <item>
      <title>[2020-08-02 Sun 08:42]</title>
      <link>https://emsenn.net/logs/2020-08-02-08-42/</link>
      <pubDate>Sun, 02 Aug 2020 08:42:00 -0400</pubDate>
      
      <guid>https://emsenn.net/logs/2020-08-02-08-42/</guid>
      <description>Read &amp;ldquo;Land-grab Universities&amp;rdquo;. Excerpt follows:
 Over the past two years, High Country News has located more than 99% of all Morrill Act acres, identified their original Indigenous inhabitants and caretakers, and researched the principal raised from their sale in the late 19th and early 20th centuries. We reconstructed approximately 10.7 million acres taken from nearly 250 tribes, bands and communities through over 160 violence-backed land cessions, a legal term for the giving up of territory[…]</description>
    </item>
    
    <item>
      <title>[2020-07-12 Sun 11:33]</title>
      <link>https://emsenn.net/logs/2020-07-12-11-33/</link>
      <pubDate>Sun, 12 Jul 2020 11:33:00 -0400</pubDate>
      
      <guid>https://emsenn.net/logs/2020-07-12-11-33/</guid>
      <description>When I was using Emacs the most, I was beginning to create a series of Org-mode macros that used Elisp functions to construct text. I can&amp;rsquo;t recall the specifics, but macros like link(transplanting-traditions) would return the text [[https://transplanting-traditions.org][Transplanting Traditions], for example.
As I&amp;rsquo;m reapproaching using Emacs and Org-mode to do relatively sophisticated things, I&amp;rsquo;m inclined to revisit that approach: writing them by hand is hard to do, and can only be maintained with careful search-and-replace.</description>
    </item>
    
    <item>
      <title>[2020-07-11 Sat 10:17]</title>
      <link>https://emsenn.net/logs/2020-07-11-10-17/</link>
      <pubDate>Sat, 11 Jul 2020 10:17:00 -0400</pubDate>
      
      <guid>https://emsenn.net/logs/2020-07-11-10-17/</guid>
      <description>I read How we can work together by Devin, of Triangle Mutual Aid</description>
    </item>
    
    <item>
      <title>[2020-07-11 Sat 08:48]</title>
      <link>https://emsenn.net/logs/2020-07-11-08-48/</link>
      <pubDate>Sat, 11 Jul 2020 08:48:00 -0400</pubDate>
      
      <guid>https://emsenn.net/logs/2020-07-11-08-48/</guid>
      <description>I live such a blessed life, woke up late because the weather did my morning gardening for me, immediately upon stepping outside I was greeted by someone with a gift of fresh apples and oranges and takeout containers, for me to have and regift to the community.
It&amp;rsquo;s so sad to me how the system of reciprocity and community-building that seems to have been core to many pre-colonial interactions between folk on Turtle Island has been equivocated, by the term &amp;ldquo;Indian giving,&amp;rdquo; to mean &amp;ldquo;giving on a gift you received because you didn&amp;rsquo;t like it.</description>
    </item>
    
    <item>
      <title>[2020-07-10 Fri 06:28]</title>
      <link>https://emsenn.net/logs/2020-07-10-06-28/</link>
      <pubDate>Fri, 10 Jul 2020 06:28:00 -0400</pubDate>
      
      <guid>https://emsenn.net/logs/2020-07-10-06-28/</guid>
      <description>It&amp;rsquo;s disappointing to see that so many settler-folk are suddenly able to talk about Native issues, now that it could potentially affect them and their colonialism, in response to McGirt vs Oklahoma. Take a lesson from the ruling, wašíču, and step outside your little settler-sick thinking and make an appreciation for other cultures and other legitimate justice systems something you can&amp;rsquo;t forget. Better worlds than yours exist.</description>
    </item>
    
    <item>
      <title>[2020-07-09 Thu 09:21]</title>
      <link>https://emsenn.net/logs/2020-07-09-09-21/</link>
      <pubDate>Thu, 09 Jul 2020 09:21:00 -0400</pubDate>
      
      <guid>https://emsenn.net/logs/2020-07-09-09-21/</guid>
      <description>I&amp;rsquo;m removing some of the smaller pages from the website, consolidating the content that was on them into the homepage. Bit of a bummer watching the word count for the website drop from nearly a quarter of a million to nine thousand, but it&amp;rsquo;ll be nice to watch it climb back up, I suppose!</description>
    </item>
    
    <item>
      <title>[2020-07-08 Wed 08:34]</title>
      <link>https://emsenn.net/logs/2020-07-08-08-34/</link>
      <pubDate>Wed, 08 Jul 2020 08:34:00 -0400</pubDate>
      
      <guid>https://emsenn.net/logs/2020-07-08-08-34/</guid>
      <description>I&amp;rsquo;m trying to consolidate all my work into what I&amp;rsquo;m actively working on, and a key starting point for that is reforming the Org-mode file I use for my personal website: specifically, clearing out old content and settings so that I can start fresh today with the best practices I&amp;rsquo;ve come up with, and not be bogged down with trying to maintain backward compatibility with the older content. I can always re-import it, and it&amp;rsquo;ll be available in the git repository for the published website, anyway!</description>
    </item>
    
  </channel>
</rss>
